"AllCast Premium-1";1
"Alpify-1";2
"Amazon Kindle-1";3
"Ant Smasher-1";4
"Atresplayer-1";5
" TSF Launcher Prime-1";6
"Bankia-1";7
"BBVA-1";8
"BlurbCheckout-1";9
"Burger King®-1";10
"Candy Camera-1";9
"CandyCameraSticker-1";4
"Caustic-1";11
"Drive-1";12
"Easy Unrar-1";13
"Facebook-1";14
"Facturación de Samsung-1";9
"Fever-1";10
"Foxit PDF-1";3
"LectureNotes-1";3
"Maps-1";15
"mClassTest-1";16
"Meetic-1";10
"Messenger-1";17
"Peel Smart Remote-1";5
"Prisma-1";12
"Samsung In-App Purchase-1";13
"Series.ly-1";5
"SideSyncPlayer-1";13
"SideSyncSource-1";6
"SimilDroid-1";1
"Spotify-1";2
"TSF Shell Patch-1";18
"Twitter-1";12
"UC3M Aula Global-1";19
"Vine-1";14
"VLC-1";5
"Wallapop-1";20
"WhatsApp-1";17
"Wikiloc-1";21
"WLANAudit-1";22
"Alpify-2";23
"BBVA-2";24
"Drive-2";12
"Facebook-2";14
"Maps-2";25
"Prisma-2";12
"SimilDroid-2";23
"WhatsApp-2";17
"Wikiloc-2";26
